{
    "setting": {
        "gpu": 0
    },
    "picture_syntax": {
        "profile_id": 1,
        "model_id": 2,
        "parameter_set_id": 2,
        "picture_size_h": 1024,
        "picture_size_w": 1024,
        "log2_slice_size_h_minus6": 4,
        "log2_slice_size_w_minus6": 4,
        "coding_tool": {
            "geo_flag": 1,
            "multi_hyper_flag": 1,
            "predictor_flag": 1,
            "filtering_CTU": 2048
        }
    },
    "slice_syntax": {
    }
}